"3" "4, S5" "S1" "S2" "S3"
"number of clones" "100" "100" "100" "100" "1000"
"cells per clone" "100" "100" "100" "100" "10"
"number of measurements" "3..15" "3..15" "7" "7" "3..15"
"average number of IS \lambda" "5" "2, 5, 10" "5" "5" "5"
"clonal variability \varmu" "0" "0, 0.125, 0.25, 0.375, 0.5" "0.25" "0.25" "0"
"measurement noise \sigma" "0.025" "0.025, 0.04, 0.08" "0.15" "0.25" "0.025"
"proliferation rate p_max" "0.06" "0.06" "0.06" "0.06" "0.06"
"differentiation rate d" "0.04" "0.04" "0.04" "0.04" "0.04"
"standard deviation of the differentiation rate \delta" "0, 0.0025, 0.005" "0.0025" "0.01" "0.01" "0, 0.0025, 0.005"
